{
    "Absorb": {
        "cost": {
            "W": 1,
            "B": 0,
            "U": 2,
            "G": 0,
            "R": 0,
            "C": 0
        },
        "typeLine": "Instant",
        "abilityCount": 2,
        "abilities": [
            "Counter target spell",
            "You gain 3 life"
        ],
        "testCardStrength": 4
    },
    "Accelerate": {
        "cost": {
            "W": 0,
            "B": 0,
            "U": 0,
            "G": 0,
            "R": 1,
            "C": 1
        },
        "typeLine": "Instant",
        "abilityCount": 2,
        "abilities": [
            "Target creature gains haste until end of turn",
            "Draw a card"
        ],
        "testCardStrength": 5
    },
    "Anarchy": {
        "cost": {
            "W": 0,
            "B": 0,
            "U": 0,
            "G": 0,
            "R": 2,
            "C": 2
        },
        "typeLine": "Sorcery",
        "abilityCount": 1,
        "abilities": [
            "Destroy all white permanents"
        ],
        "testCardStrength": 4
    },
    "Ancestral Reminiscence": {
        "cost": {
            "W": 0,
            "B": 0,
            "U": 1,
            "G": 0,
            "R": 0,
            "C": 3
        },
        "typeLine": "Sorcery",
        "abilityCount": 1,
        "abilities": [
            "Draw three cards, then discard a card"
        ],
        "testCardStrength": 3
    },
    "Agonizing Syphon": {
        "cost": {
            "W": 0,
            "B": 1,
            "U": 0,
            "G": 0,
            "R": 0,
            "C": 3
        },
        "typeLine": "Sorcery",
        "abilityCount": 2,
        "abilities": [
            "Agonizing Syphon deals 3 damage to any target",
            "you gain 3 life"
        ],
        "testCardStrength": 2
    },
    "Angel's Mercy": {
        "cost": {
            "W": 2,
            "B": 0,
            "U": 0,
            "G": 0,
            "R": 0,
            "C": 2
        },
        "typeLine": "Instant",
        "abilityCount": 1,
        "abilities": [
            "You gain 7 life"
        ],
        "testCardStrength": 1
    },
    "Anguished Unmaking": {
        "cost": {
            "W": 1,
            "B": 1,
            "U": 0,
            "G": 0,
            "R": 0,
            "C": 1
        },
        "typeLine": "Instant",
        "abilityCount": 2,
        "abilities": [
            "Exile target nonland permanent",
            "You lose 3 life"
        ],
        "testCardStrength": 2
    },
    "Aura Blast": {
        "cost": {
            "W": 1,
            "B": 0,
            "U": 0,
            "G": 0,
            "R": 0,
            "C": 1
        },
        "typeLine": "Instant",
        "abilityCount": 2,
        "abilities": [
            "Destroy target enchantment",
            "Draw a card"
        ],
        "testCardStrength": 6
    },
    "Back to Nature": {
        "cost": {
            "W": 0,
            "B": 0,
            "U": 0,
            "G": 1,
            "R": 0,
            "C": 1
        },
        "typeLine": "Instant",
        "abilityCount": 1,
        "abilities": [
            "Destroy all enchantments"
        ],
        "testCardStrength": 9
    },
    "Barter in Bloos": {
        "cost": {
            "W": 0,
            "B": 2,
            "U": 0,
            "G": 0,
            "R": 0,
            "C": 2
        },
        "typeLine": "Sorcery",
        "abilityCount": 1,
        "abilities": [
            "Each player sacrifices two creatures"
        ],
        "testCardStrength": 2
    },
    "Annul": {
        "cost": {
            "W": 0,
            "B": 0,
            "U": 1,
            "G": 0,
            "R": 0,
            "C": 0
        },
        "typeLine": "Instant",
        "abilityCount": 1,
        "abilities": [
            "Counter target artifact or enchantment spell"
        ],
        "testCardStrength": 6
    },
    "Appetite for the Unnatural": {
        "cost": {
            "W": 0,
            "B": 0,
            "U": 0,
            "G": 1,
            "R": 0,
            "C": 2
        },
        "typeLine": "Instant",
        "abilityCount": 2,
        "abilities": [
            "Destroy target artifact or enchantment",
            "You gain 2 life"
        ],
        "testCardStrength": 3
    },
    "Befoul": {
        "cost": {
            "W": 0,
            "B": 2,
            "U": 0,
            "G": 0,
            "R": 0,
            "C": 2
        },
        "typeLine": "2",
        "abilityCount": 1,
        "abilities": [
            "Destroy target land or nonblack creature. It can't be regenerated"
        ],
        "testCardStrength": 4
    },
    "Blood Pact": {
        "cost": {
            "W": 0,
            "B": 1,
            "U": 0,
            "G": 0,
            "R": 0,
            "C": 2
        },
        "typeLine": "Instant",
        "abilityCount": 2,
        "abilities": [
            "Target player draws two cards",
            "Target player loses 2 life"
        ],
        "testCardStrength": 5
    },
    "Cancel": {
        "cost": {
            "W": 0,
            "B": 0,
            "U": 2,
            "G": 0,
            "R": 0,
            "C": 1
        },
        "typeLine": "Instant",
        "abilityCount": 1,
        "abilities": [
            "Counter target spell"
        ],
        "testCardStrength": 6
    },
    "Cleaver Riot": {
        "cost": {
            "W": 0,
            "B": 0,
            "U": 0,
            "G": 0,
            "R": 1,
            "C": 4
        },
        "typeLine": "Sorcery",
        "abilityCount": 1,
        "abilities": [
            "Creatures you control gain double strike until end of turn"
        ],
        "testCardStrength": 3
    },
    "Concentrate": {
        "cost": {
            "W": 0,
            "B": 0,
            "U": 2,
            "G": 0,
            "R": 0,
            "C": 2
        },
        "typeLine": "Sorcery",
        "abilityCount": 1,
        "abilities": [
            "Draw three cards"
        ],
        "testCardStrength": 4
    },
    "Contradict": {
        "cost": {
            "W": 0,
            "B": 0,
            "U": 2,
            "G": 0,
            "R": 0,
            "C": 3
        },
        "typeLine": "Instant",
        "abilityCount": 2,
        "abilities": [
            "Counter target spell",
            "Draw a card"
        ],
        "testCardStrength": 3
    },
    "Counsel of the Soratami": {
        "cost": {
            "W": 0,
            "B": 0,
            "U": 1,
            "G": 0,
            "R": 0,
            "C": 2
        },
        "typeLine": "Sorcery",
        "abilityCount": 1,
        "abilities": [
            "Draw two cards"
        ],
        "testCardStrength": 4
    },
    "Counterspell": {
        "cost": {
            "W": 0,
            "B": 0,
            "U": 2,
            "G": 0,
            "R": 0,
            "C": 0
        },
        "typeLine": "Instant",
        "abilityCount": 1,
        "abilities": [
            "Counter target spell"
        ],
        "testCardStrength": 8
    },
    "Cruel Edict": {
        "cost": {
            "W": 0,
            "B": 1,
            "U": 0,
            "G": 0,
            "R": 0,
            "C": 1
        },
        "typeLine": "Sorcery",
        "abilityCount": 1,
        "abilities": [
            "Target opponent sacrifices a creature"
        ],
        "testCardStrength": 3
    },
    "Cursebreak": {
        "cost": {
            "W": 1,
            "B": 0,
            "U": 0,
            "G": 0,
            "R": 0,
            "C": 1
        },
        "typeLine": "Instant",
        "abilityCount": 2,
        "abilities": [
            "Destroy target enchantment",
            "You gain 2 life"
        ],
        "testCardStrength": 5
    },
    "Damnation": {
        "cost": {
            "W": 0,
            "B": 2,
            "U": 0,
            "G": 0,
            "R": 0,
            "C": 2
        },
        "typeLine": "Sorcery",
        "abilityCount": 1,
        "abilities": [
            "Destroy all creatures, They can't be regenerated"
        ],
        "testCardStrength": 7
    },
    "Dark Betrayal": {
        "cost": {
            "W": 0,
            "B": 1,
            "U": 0,
            "G": 0,
            "R": 0,
            "C": 0
        },
        "typeLine": "Instant",
        "abilityCount": 1,
        "abilities": [
            "Destroy target black creature"
        ],
        "testCardStrength": 4
    },
    "Davriel's Shadowfugue": {
        "cost": {
            "W": 0,
            "B": 1,
            "U": 0,
            "G": 0,
            "R": 0,
            "C": 3
        },
        "typeLine": "Sorcery",
        "abilityCount": 2,
        "abilities": [
            "Target player discards two cards",
            "Target player loses 2 life"
        ],
        "testCardStrength": 2
    },
    "Crack the Earth": {
        "cost": {
            "W": 0,
            "B": 0,
            "U": 0,
            "G": 0,
            "R": 1,
            "C": 0
        },
        "typeLine": "Sorcery - Arcane",
        "abilityCount": 1,
        "abilities": [
            "Each player sacrifices a permanent"
        ],
        "testCardStrength": 3
    },
    "Craterize": {
        "cost": {
            "W": 0,
            "B": 0,
            "U": 0,
            "G": 0,
            "R": 1,
            "C": 3
        },
        "typeLine": "Sorcery",
        "abilityCount": 1,
        "abilities": [
            "Destroy target land"
        ],
        "testCardStrength": 4
    },
    "Creeping Mold": {
        "cost": {
            "W": 0,
            "B": 0,
            "U": 0,
            "G": 2,
            "R": 0,
            "C": 2
        },
        "typeLine": "Sorcery",
        "abilityCount": 1,
        "abilities": [
            "Destroy target artifact, enchantment, or land"
        ],
        "testCardStrength": 3
    },
    "Creeping Corrosion": {
        "cost": {
            "W": 0,
            "B": 0,
            "U": 0,
            "G": 2,
            "R": 0,
            "C": 2
        },
        "typeLine": "Sorcery",
        "abilityCount": 1,
        "abilities": [
            "Destroy all artifacts"
        ],
        "testCardStrength": 4
    },
    "Deliberate": {
        "cost": {
            "W": 0,
            "B": 0,
            "U": 1,
            "G": 0,
            "R": 0,
            "C": 1
        },
        "typeLine": "Instant",
        "abilityCount": 2,
        "abilities": [
            "Scry 2",
            "Draw a card"
        ],
        "testCardStrength": 7
    },
    "Delirium Skeins": {
        "cost": {
            "W": 0,
            "B": 1,
            "U": 0,
            "G": 0,
            "R": 0,
            "C": 2
        },
        "typeLine": "Sorcery",
        "abilityCount": 1,
        "abilities": [
            "Each player discards three cards"
        ],
        "testCardStrength": 2
    },
    "Demolish": {
        "cost": {
            "W": 0,
            "B": 0,
            "U": 0,
            "G": 0,
            "R": 1,
            "C": 3
        },
        "typeLine": "Sorcery",
        "abilityCount": 1,
        "abilities": [
            "Destroy target artifact or land"
        ],
        "testCardStrength": 3
    },
    "Demon's Due": {
        "cost": {
            "W": 0,
            "B": 1,
            "U": 0,
            "G": 0,
            "R": 0,
            "C": 3
        },
        "typeLine": "Instant",
        "abilityCount": 3,
        "abilities": [
            "Scry 2",
            "Draw two cards",
            "You lose 2 life"
        ],
        "testCardStrength": 5
    },
    "Demystify": {
        "cost": {
            "W": 1,
            "B": 0,
            "U": 0,
            "G": 0,
            "R": 0,
            "C": 0
        },
        "typeLine": "Instant",
        "abilityCount": 1,
        "abilities": [
            "Destroy target enchantment"
        ],
        "testCardStrength": 7
    },
    "Desecration Plague": {
        "cost": {
            "W": 0,
            "B": 0,
            "U": 0,
            "G": 1,
            "R": 0,
            "C": 3
        },
        "typeLine": "Sorcery",
        "abilityCount": 1,
        "abilities": [
            "Destroy target enchantment or land"
        ],
        "testCardStrength": 3
    },
    "Desert Sandstorm": {
        "cost": {
            "W": 0,
            "B": 0,
            "U": 0,
            "G": 0,
            "R": 1,
            "C": 2
        },
        "typeLine": "Sorcery",
        "abilityCount": 1,
        "abilities": [
            "Desert Sandstorm deals 1 damage to each creature"
        ],
        "testCardStrength": 2
    },
    "Desert Twister": {
        "cost": {
            "W": 0,
            "B": 0,
            "U": 0,
            "G": 2,
            "R": 0,
            "C": 4
        },
        "typeLine": "Sorcery",
        "abilityCount": 1,
        "abilities": [
            "Destroy target permanent"
        ],
        "testCardStrength": 1
    },
    "Devastate": {
        "cost": {
            "W": 0,
            "B": 0,
            "U": 0,
            "G": 0,
            "R": 2,
            "C": 3
        },
        "typeLine": "Sorcery",
        "abilityCount": 3,
        "abilities": [
            "Destroy target land",
            "Devastate deals 1 damage to each creature",
            "Devastate deals 1 damage to each player"
        ],
        "testCardStrength": 3
    },
    "Devastation": {
        "cost": {
            "W": 0,
            "B": 0,
            "U": 0,
            "G": 0,
            "R": 2,
            "C": 5
        },
        "typeLine": "Sorcery",
        "abilityCount": 2,
        "abilities": [
            "Destroy all creatures",
            "Destroy all lands"
        ],
        "testCardStrength": 5
    },
    "Diabolic Edict": {
        "cost": {
            "W": 0,
            "B": 1,
            "U": 0,
            "G": 0,
            "R": 0,
            "C": 1
        },
        "typeLine": "Instant",
        "abilityCount": 1,
        "abilities": [
            "Target player sacrifices a creature"
        ],
        "testCardStrength": 4
    },
    "Disenchant": {
        "cost": {
            "W": 1,
            "B": 0,
            "U": 0,
            "G": 0,
            "R": 0,
            "C": 1
        },
        "typeLine": "Instant",
        "abilityCount": 1,
        "abilities": [
            "Destroy target artifact or enchantment"
        ],
        "testCardStrength": 6
    },
    "Dismiss": {
        "cost": {
            "W": 0,
            "B": 0,
            "U": 2,
            "G": 0,
            "R": 0,
            "C": 2
        },
        "typeLine": "Instant",
        "abilityCount": 2,
        "abilities": [
            "Counter target spell",
            "Draw a card"
        ],
        "testCardStrength": 4
    },
    "Dispel": {
        "cost": {
            "W": 0,
            "B": 0,
            "U": 1,
            "G": 0,
            "R": 0,
            "C": 0
        },
        "typeLine": "Instant",
        "abilityCount": 1,
        "abilities": [
            "Counter target instant spell"
        ],
        "testCardStrength": 8
    },
    "Dissolve": {
        "cost": {
            "W": 0,
            "B": 0,
            "U": 2,
            "G": 0,
            "R": 0,
            "C": 1
        },
        "typeLine": "Instant",
        "abilityCount": 2,
        "abilities": [
            "Counter target spell",
            "Scry 2"
        ],
        "testCardStrength": 3
    },
    "Divination": {
        "cost": {
            "W": 0,
            "B": 0,
            "U": 1,
            "G": 0,
            "R": 0,
            "C": 2
        },
        "typeLine": "Sorcery",
        "abilityCount": 1,
        "abilities": [
            "Draw two cards"
        ],
        "testCardStrength": 3
    },
    "Dosan's Oldest Chant": {
        "cost": {
            "W": 0,
            "B": 0,
            "U": 0,
            "G": 1,
            "R": 0,
            "C": 4
        },
        "typeLine": "Sorcery",
        "abilityCount": 2,
        "abilities": [
            "You gain 6 life",
            "Draw a card"
        ],
        "testCardStrength": 2
    },
    "Double Negative": {
        "cost": {
            "W": 0,
            "B": 0,
            "U": 2,
            "G": 0,
            "R": 1,
            "C": 0
        },
        "typeLine": "Instant",
        "abilityCount": 1,
        "abilities": [
            "Counter up to two target spells"
        ],
        "testCardStrength": 4
    },
    "Douse in Gloom": {
        "cost": {
            "W": 0,
            "B": 1,
            "U": 0,
            "G": 0,
            "R": 0,
            "C": 2
        },
        "typeLine": "Instant",
        "abilityCount": 2,
        "abilities": [
            "Douse in Gloom deals 2 damage to target creature",
            "You gain 2 life"
        ],
        "testCardStrength": 2
    },
    "Dovin's Veto": {
        "cost": {
            "W": 1,
            "B": 0,
            "U": 1,
            "G": 0,
            "R": 0,
            "C": 0
        },
        "typeLine": "Instant",
        "abilityCount": 2,
        "abilities": [
            "This spell can't be countered",
            "Counter target noncreature spell"
        ],
        "testCardStrength": 7
    },
    "Downpour": {
        "cost": {
            "W": 0,
            "B": 0,
            "U": 1,
            "G": 0,
            "R": 0,
            "C": 1
        },
        "typeLine": "Instant",
        "abilityCount": 1,
        "abilities": [
            "Tap up to three target creatures"
        ],
        "testCardStrength": 3
    },
    "Eerie Interlude": {
        "cost": {
            "W": 1,
            "B": 0,
            "U": 0,
            "G": 0,
            "R": 0,
            "C": 2
        },
        "typeLine": "Instant",
        "abilityCount": 1,
        "abilities": [
            "Exile any number of target creatures you control. Return those cards to the battlefield under their owner's control at the beginning of the next end step"
        ],
        "testCardStrength": 4
    },
    "Envelop": {
        "cost": {
            "W": 0,
            "B": 0,
            "U": 1,
            "G": 0,
            "R": 0,
            "C": 0
        },
        "typeLine": "Instant",
        "abilityCount": 1,
        "abilities": [
            "Counter target sorcery spell"
        ],
        "testCardStrength": 5
    },
    "Expedite": {
        "cost": {
            "W": 0,
            "B": 0,
            "U": 0,
            "G": 0,
            "R": 1,
            "C": 0
        },
        "typeLine": "Instant",
        "abilityCount": 2,
        "abilities": [
            "Target creature gains haste until end of turn",
            "Draw a card"
        ],
        "testCardStrength": 7
    },
    "Expose to Daylight": {
        "cost": {
            "W": 1,
            "B": 0,
            "U": 0,
            "G": 0,
            "R": 0,
            "C": 2
        },
        "typeLine": "Instant",
        "abilityCount": 2,
        "abilities": [
            "Destroy target artifact or enchantment",
            "Scry 1"
        ],
        "testCardStrength": 4
    },
    "Fade into Antiquity": {
        "cost": {
            "W": 0,
            "B": 0,
            "U": 0,
            "G": 1,
            "R": 0,
            "C": 2
        },
        "typeLine": "Sorcery",
        "abilityCount": 1,
        "abilities": [
            "Exile target artifact or enchantment"
        ],
        "testCardStrength": 3
    },
    "Final Judgment": {
        "cost": {
            "W": 2,
            "B": 0,
            "U": 0,
            "G": 0,
            "R": 0,
            "C": 4
        },
        "typeLine": "Sorcery",
        "abilityCount": 1,
        "abilities": [
            "Exile all creatures"
        ],
        "testCardStrength": 5
    }
}